Using ipfr
…
# Repeat the per_seed to create tract 1 and 2 persons
new_per_seed <- bind_rows(
  per_seed,
  per_seed %>% 
    mutate(id = id + 8)
)

new_per_seed
#> # A tibble: 46 x 2
#>       id pertype
#>    <dbl>   <dbl>
#>  1     1       1
#>  2     1       2
#>  3     1       3
#>  4     2       1
#>  5     2       3
#>  6     3       1
#>  7     3       1
#>  8     3       2
#>  9     4       1
#> 10     4       3
#> # ... with 36 more rows
…
